%YAML 1.1
%TAG !u! tag:unity3d.com,2011:
--- !u!114 &11400000
MonoBehaviour:
  m_ObjectHideFlags: 0
  m_CorrespondingSourceObject: {fileID: 0}
  m_PrefabInstance: {fileID: 0}
  m_PrefabAsset: {fileID: 0}
  m_GameObject: {fileID: 0}
  m_Enabled: 1
  m_EditorHideFlags: 0
  m_Script: {fileID: 11500000, guid: e23cda116b75ea645a0848bcbc26e687, type: 3}
  m_Name: SO_Event_Bool_Facial_Baseball
  m_EditorClassIdentifier: 
  descriptionText: Mouth Wide Open Scriptable Event
  showDebugMessages: 0
